{
    "rolesToReactTo":{
       "options":{
          "askForNotifications":true,
          "askForNotificationsTimout":20000,
          "timeoutForNotifications":7200000
       },
       "roleRules":[
          {
             "roleId":"844210738985173023",
             "channelId":"844211102375346246",
             "reactions":[
                "✅",
                "❌",
                "❓"
             ]
          },
          {
             "roleId":"1021466887256809493",
             "channelId":"1052641601744277524",
             "reactions":[
                "✅",
                "❌",
                "❓"
             ]
          }
       ]
    }
 }
